[gd_scene load_steps=3 format=2]

[ext_resource path="res://scripts/MainMenu.gd" type="Script" id=1]
[ext_resource path="res://images/pointercursor.png" type="Texture" id=2]

[node name="MainMenu" type="Node2D"]
script = ExtResource( 1 )

[node name="Title" type="Label" parent="."]
modulate = Color( 0.0313726, 0.0941176, 0.12549, 1 )
margin_left = 39.0
margin_top = 41.0
margin_right = 103.0
margin_bottom = 89.0
text = "Reflection

Reverie"
align = 1

[node name="Start" type="Label" parent="."]
margin_left = 56.0
margin_top = 128.0
margin_right = 96.0
margin_bottom = 142.0
text = "Start"

[node name="New" type="Label" parent="."]
visible = false
margin_left = 56.0
margin_top = 96.0
margin_right = 96.0
margin_bottom = 110.0
text = "New"

[node name="Load" type="Label" parent="."]
visible = false
margin_left = 56.0
margin_top = 112.0
margin_right = 96.0
margin_bottom = 126.0
text = "Load"

[node name="Size" type="Label" parent="."]
visible = false
margin_left = 40.0
margin_top = 128.0
margin_right = 109.0
margin_bottom = 142.0
text = "< Size x6 >"

[node name="Pointer" type="Sprite" parent="."]
position = Vector2( 47, 128 )
texture = ExtResource( 2 )
centered = false

[node name="Build" type="Label" parent="."]
margin_left = 8.0
margin_top = 72.0
margin_right = 132.0
margin_bottom = 86.0
text = "Build v0.0.1_GBJam"
