; Engine configuration file.
; It's best edited using the editor UI and not directly,
; since the parameters that go here are not all obvious.
;
; Format:
;   [section] ; section goes between []
;   param=value ; assign values to parameters

config_version=4

_global_script_classes=[ {
"base": "Node2D",
"class": "BattleEntity",
"language": "GDScript",
"path": "res://scripts/battle/battleentity.gd"
}, {
"base": "Label",
"class": "BattleLabel",
"language": "GDScript",
"path": "res://scripts/battle/HUD/battlelabel.gd"
}, {
"base": "Area2D",
"class": "EnemyTurnEntity",
"language": "GDScript",
"path": "res://scripts/battle/EnemyTurnEntity.gd"
}, {
"base": "Node",
"class": "Item",
"language": "GDScript",
"path": "res://scripts/items/item.gd"
}, {
"base": "Node2D",
"class": "PartyMember",
"language": "GDScript",
"path": "res://scripts/battle/partymember.gd"
}, {
"base": "Node",
"class": "Spell",
"language": "GDScript",
"path": "res://scripts/spells/spell.gd"
} ]
_global_script_class_icons={
"BattleEntity": "",
"BattleLabel": "",
"EnemyTurnEntity": "",
"Item": "",
"PartyMember": "",
"Spell": ""
}

[application]

config/name="Reflection Reverie"
run/main_scene="res://scenes/MainMenu.tscn"
config/use_custom_user_dir=true
config/custom_user_dir_name="ImpossibleRealms/ReflectionReverie"
config/icon="res://icon.png"

[autoload]

Main="*res://scripts/Main.gd"

[display]

window/size/width=160
window/size/height=144
window/stretch/mode="2d"

[gui]

common/drop_mouse_on_gui_input_disabled=true

[importer_defaults]

texture={
"compress/bptc_ldr": 0,
"compress/hdr_mode": 0,
"compress/lossy_quality": 0.7,
"compress/mode": 0,
"compress/normal_map": 0,
"detect_3d": false,
"flags/anisotropic": false,
"flags/filter": false,
"flags/mipmaps": false,
"flags/repeat": 0,
"flags/srgb": 2,
"process/HDR_as_SRGB": false,
"process/fix_alpha_border": true,
"process/invert_color": false,
"process/normal_map_invert_y": false,
"process/premult_alpha": false,
"size_limit": 0,
"stream": false,
"svg/scale": 1.0
}

[input]

ui_accept={
"deadzone": 0.5,
"events": [ Object(InputEventKey,"resource_local_to_scene":false,"resource_name":"","device":0,"alt":false,"shift":false,"control":false,"meta":false,"command":false,"pressed":false,"scancode":16777221,"physical_scancode":0,"unicode":0,"echo":false,"script":null)
, Object(InputEventKey,"resource_local_to_scene":false,"resource_name":"","device":0,"alt":false,"shift":false,"control":false,"meta":false,"command":false,"pressed":false,"scancode":16777222,"physical_scancode":0,"unicode":0,"echo":false,"script":null)
, Object(InputEventKey,"resource_local_to_scene":false,"resource_name":"","device":0,"alt":false,"shift":false,"control":false,"meta":false,"command":false,"pressed":false,"scancode":90,"physical_scancode":0,"unicode":0,"echo":false,"script":null)
, Object(InputEventJoypadButton,"resource_local_to_scene":false,"resource_name":"","device":0,"button_index":0,"pressure":0.0,"pressed":false,"script":null)
 ]
}
ui_cancel={
"deadzone": 0.5,
"events": [ Object(InputEventKey,"resource_local_to_scene":false,"resource_name":"","device":0,"alt":false,"shift":false,"control":false,"meta":false,"command":false,"pressed":false,"scancode":88,"physical_scancode":0,"unicode":0,"echo":false,"script":null)
, Object(InputEventJoypadButton,"resource_local_to_scene":false,"resource_name":"","device":0,"button_index":1,"pressure":0.0,"pressed":false,"script":null)
 ]
}
screenshot={
"deadzone": 0.5,
"events": [ Object(InputEventKey,"resource_local_to_scene":false,"resource_name":"","device":0,"alt":false,"shift":false,"control":false,"meta":false,"command":false,"pressed":false,"scancode":16777245,"physical_scancode":0,"unicode":0,"echo":false,"script":null)
 ]
}

[physics]

common/enable_pause_aware_picking=true

[rendering]

quality/intended_usage/framebuffer_allocation=1
quality/intended_usage/framebuffer_allocation.mobile=1
2d/snapping/use_gpu_pixel_snap=true
environment/default_clear_color=Color( 0.878431, 0.972549, 0.815686, 1 )
environment/default_environment="res://default_env.tres"
